20210313-tarde-exercicio.R
…
## [1] 731

#
# PASSO 4 - Tratar os dados faltantes definindo a mdia da coluna
#           usando as libs zoo e data.table
#
data <- na.aggregate(data)
data

## # A tibble: 2,800 x 28
##       A1    A2    A3    A4    A5    C1    C2    C3    C4    C5    E1    E2    E3
##    <dbl> <dbl> <dbl> <dbl> <dbl> <dbl> <dbl> <dbl> <dbl> <dbl> <dbl> <dbl> <dbl>
##  1     2     4     3     4     4     2     3     3     4     4     3     3  3   
##  2     2     4     5     2     5     5     4     4     3     4     1     1  6   
##  3     5     4     5     4     4     4     5     4     2     5     2     4  4   
##  4     4     4     6     5     5     4     4     3     5     5     5     3  4   
##  5     2     3     3     4     5     4     4     5     3     2     2     2  5   
##  6     6     6     5     6     5     6     6     6     1     3     2     1  6   
##  7     2     5     5     3     5     5     4     4     2     3     4     3  4   
##  8     4     3     1     5     1     3     2     4     2     4     3     6  4   
##  9     4     3     6     3     3     6     6     3     4     5     5     3  4.00
## 10     2     5     6     6     5     6     5     6     2     1     2     2  4   
## #  with 2,790 more rows, and 15 more variables: E4 <dbl>, E5 <dbl>, N1 <dbl>,
## #   N2 <dbl>, N3 <dbl>, N4 <dbl>, N5 <dbl>, O1 <dbl>, O2 <dbl>, O3 <dbl>,
## #   O4 <dbl>, O5 <dbl>, gender <dbl>, education <dbl>, age <dbl>
…
